slcan.c:38:13:slcanSetOutputChar	16	static
slcan.c:52:13:slCanSendNibble	16	static
slcan.c:63:13:slcanSetOutputAsHex	16	static
slcan.c:68:13:slcanOutputFlush	8	static
slcan.c:75:6:slCanHandler	16	static
slcan.c:90:5:slCanProccesInput	16	static
slcan.c:115:9:parseHex	24	static
slcan.c:138:16:transmitStd	40	static
slcan.c:191:6:slCanCheckCommand	24	static
slcan.c:370:9:slcanReciveCanFrame	24	static
